{
  "name"       : "Periodic Table",
  "calculator" : "none",
  "options"    : {
    "missing"  : "number",
  },
  "static"     : [
{"n":"Hydrogen","s":"H","a":1,"w":1.008},{"n":"Helium","s":"He","a":2,"w":4.0026},{"n":"Lithium","s":"Li","a":3,"w":6.94},{"n":"Beryllium","s":"Be","a":4,"w":9.01218},{"n":"Boron","s":"B","a":5,"w":10.81},{"n":"Carbon","s":"C","a":6,"w":12.011},{"n":"Nitrogen","s":"N","a":7,"w":14.007},{"n":"Oxygen","s":"O","a":8,"w":15.999},{"n":"Fluorine","s":"F","a":9,"w":18.9984},{"n":"Neon","s":"Ne","a":10,"w":20.1798},{"n":"Sodium","s":"Na","a":11,"w":22.9898},{"n":"Magnesium","s":"Mg","a":12,"w":24.305},{"n":"Aluminium","s":"Al","a":13,"w":26.9815},{"n":"Silicon","s":"Si","a":14,"w":28.085},{"n":"Phosphorus","s":"P","a":15,"w":30.9738},{"n":"Sulfur","s":"S","a":16,"w":32.06},{"n":"Chlorine","s":"Cl","a":17,"w":35.45},{"n":"Argon","s":"Ar","a":18,"w":39.9481},{"n":"Potassium","s":"K","a":19,"w":39.0983},{"n":"Calcium","s":"Ca","a":20,"w":40.0784},{"n":"Scandium","s":"Sc","a":21,"w":44.9559},{"n":"Titanium","s":"Ti","a":22,"w":47.8671},{"n":"Vanadium","s":"V","a":23,"w":50.9415},{"n":"Chromium","s":"Cr","a":24,"w":51.9962},{"n":"Manganese","s":"Mn","a":25,"w":54.938},{"n":"Iron","s":"Fe","a":26,"w":55.8452},{"n":"Cobalt","s":"Co","a":27,"w":58.9332},{"n":"Nickel","s":"Ni","a":28,"w":58.6934},{"n":"Copper","s":"Cu","a":29,"w":63.5463},{"n":"Zinc","s":"Zn","a":30,"w":65.382},{"n":"Gallium","s":"Ga","a":31,"w":69.7231},{"n":"Germanium","s":"Ge","a":32,"w":72.6308},{"n":"Arsenic","s":"As","a":33,"w":74.9216},{"n":"Selenium","s":"Se","a":34,"w":78.9718},{"n":"Bromine","s":"Br","a":35,"w":79.904},{"n":"Krypton","s":"Kr","a":36,"w":83.7982},{"n":"Rubidium","s":"Rb","a":37,"w":85.4678},{"n":"Strontium","s":"Sr","a":38,"w":87.621},{"n":"Yttrium","s":"Y","a":39,"w":88.9058},{"n":"Zirconium","s":"Zr","a":40,"w":91.2242},{"n":"Niobium","s":"Nb","a":41,"w":92.9064},{"n":"Molybdenum","s":"Mo","a":42,"w":95.951},{"n":"Technetium","s":"Tc","a":43,"w":98},{"n":"Ruthenium","s":"Ru","a":44,"w":101.072},{"n":"Rhodium","s":"Rh","a":45,"w":102.906},{"n":"Palladium","s":"Pd","a":46,"w":106.421},{"n":"Silver","s":"Ag","a":47,"w":107.868},{"n":"Cadmium","s":"Cd","a":48,"w":112.414},{"n":"Indium","s":"In","a":49,"w":114.818},{"n":"Tin","s":"Sn","a":50,"w":118.711},{"n":"Antimony","s":"Sb","a":51,"w":121.76},{"n":"Tellurium","s":"Te","a":52,"w":127.603},{"n":"Iodine","s":"I","a":53,"w":126.904},{"n":"Xenon","s":"Xe","a":54,"w":131.294},{"n":"Cesium","s":"Cs","a":55,"w":132.905},{"n":"Barium","s":"Ba","a":56,"w":137.328},{"n":"Lanthanum","s":"La","a":57,"w":138.905},{"n":"Cerium","s":"Ce","a":58,"w":140.116},{"n":"Praseodymium","s":"Pr","a":59,"w":140.908},{"n":"Neodymium","s":"Nd","a":60,"w":144.242},{"n":"Promethium","s":"Pm","a":61,"w":145},{"n":"Samarium","s":"Sm","a":62,"w":150.362},{"n":"Europium","s":"Eu","a":63,"w":151.964},{"n":"Gadolinium","s":"Gd","a":64,"w":157.253},{"n":"Terbium","s":"Tb","a":65,"w":158.925},{"n":"Dysprosium","s":"Dy","a":66,"w":162.5},{"n":"Holmium","s":"Ho","a":67,"w":164.93},{"n":"Erbium","s":"Er","a":68,"w":167.259},{"n":"Thulium","s":"Tm","a":69,"w":168.934},{"n":"Ytterbium","s":"Yb","a":70,"w":173.045},{"n":"Lutetium","s":"Lu","a":71,"w":174.967},{"n":"Hafnium","s":"Hf","a":72,"w":178.492},{"n":"Tantalum","s":"Ta","a":73,"w":180.948},{"n":"Tungsten","s":"W","a":74,"w":183.841},{"n":"Rhenium","s":"Re","a":75,"w":186.207},{"n":"Osmium","s":"Os","a":76,"w":190.233},{"n":"Iridium","s":"Ir","a":77,"w":192.217},{"n":"Platinum","s":"Pt","a":78,"w":195.085},{"n":"Gold","s":"Au","a":79,"w":196.967},{"n":"Mercury","s":"Hg","a":80,"w":200.592},{"n":"Thallium","s":"Tl","a":81,"w":204.38},{"n":"Lead","s":"Pb","a":82,"w":207.21},{"n":"Bismuth","s":"Bi","a":83,"w":208.98},{"n":"Polonium","s":"Po","a":84,"w":209},{"n":"Astatine","s":"At","a":85,"w":210},{"n":"Radon","s":"Rn","a":86,"w":222},{"n":"Francium","s":"Fr","a":87,"w":223},{"n":"Radium","s":"Ra","a":88,"w":226},{"n":"Actinium","s":"Ac","a":89,"w":227},{"n":"Thorium","s":"Th","a":90,"w":232.038},{"n":"Protactinium","s":"Pa","a":91,"w":231.036},{"n":"Uranium","s":"U","a":92,"w":238.029},{"n":"Neptunium","s":"Np","a":93,"w":237},{"n":"Plutonium","s":"Pu","a":94,"w":244},{"n":"Americium","s":"Am","a":95,"w":243},{"n":"Curium","s":"Cm","a":96,"w":247},{"n":"Berkelium","s":"Bk","a":97,"w":247},{"n":"Californium","s":"Cf","a":98,"w":251},{"n":"Einsteinium","s":"Es","a":99,"w":252},{"n":"Fermium","s":"Fm","a":100,"w":257},{"n":"Mendelevium","s":"Md","a":101,"w":258},{"n":"Nobelium","s":"No","a":102,"w":259},{"n":"Lawrencium","s":"Lr","a":103,"w":266},{"n":"Rutherfordium","s":"Rf","a":104,"w":267},{"n":"Dubnium","s":"Db","a":105,"w":268},{"n":"Seaborgium","s":"Sg","a":106,"w":269},{"n":"Bohrium","s":"Bh","a":107,"w":270},{"n":"Hassium","s":"Hs","a":108,"w":269},{"n":"Meitnerium","s":"Mt","a":109,"w":278},{"n":"Darmstadtium","s":"Ds","a":110,"w":281},{"n":"Roentgenium","s":"Rg","a":111,"w":282},{"n":"Copernicium","s":"Cn","a":112,"w":285},{"n":"Nihonium","s":"Nh","a":113,"w":286},{"n":"Flerovium","s":"Fl","a":114,"w":289},{"n":"Moscovium","s":"Mc","a":115,"w":289},{"n":"Livermorium","s":"Lv","a":116,"w":293},{"n":"Tennessine","s":"Ts","a":117,"w":294},{"n":"Oganesson","s":"Og","a":118,"w":294},{"n":"Ununennium","s":"Uue","a":119,"w":315}
  ]
}

