<?xml version="1.0" encoding="UTF-8" standalone="no"?>
<svg
   xmlns:dc="http://purl.org/dc/elements/1.1/"
   xmlns:cc="http://creativecommons.org/ns#"
   xmlns:rdf="http://www.w3.org/1999/02/22-rdf-syntax-ns#"
   xmlns:svg="http://www.w3.org/2000/svg"
   xmlns="http://www.w3.org/2000/svg"
   width="9.9506397mm"
   height="16.407639mm"
   viewBox="0 0 9.9506397 16.407639"
   version="1.1"
   id="svg914">
  <defs
     id="defs908" />
  <metadata
     id="metadata911">
    <rdf:RDF>
      <cc:Work
         rdf:about="">
        <dc:format>image/svg+xml</dc:format>
        <dc:type
           rdf:resource="http://purl.org/dc/dcmitype/StillImage" />
        <dc:title></dc:title>
      </cc:Work>
    </rdf:RDF>
  </metadata>
  <rect
     ry="0.085316986"
     y="0.15000001"
     x="0.15000001"
     height="16.107637"
     width="9.6506395"
     id="rect3715-1"
     style="fill:#262626;fill-opacity:1;stroke:#ffffff;stroke-width:0.30000001;stroke-linecap:square;stroke-linejoin:bevel;stroke-miterlimit:5;stroke-dasharray:none;stroke-opacity:1" />
  <rect
     y="0.80296159"
     x="0.88091123"
     height="4.9167247"
     width="8.1888227"
     id="rect4531-2"
     style="fill:#262626;fill-opacity:1;stroke:#ffffff;stroke-width:0.30000001;stroke-linecap:square;stroke-linejoin:round;stroke-miterlimit:5;stroke-dasharray:none;stroke-opacity:1" />
  <rect
     y="8.6726818"
     x="1.4652928"
     height="2.0444503"
     width="2.0444503"
     id="rect4533-7"
     style="fill:#262626;fill-opacity:1;stroke:#ffffff;stroke-width:0.30000001;stroke-linecap:square;stroke-linejoin:round;stroke-miterlimit:5;stroke-dasharray:none;stroke-opacity:1" />
  <rect
     y="8.6726818"
     x="3.9531009"
     height="2.0444503"
     width="2.0444503"
     id="rect4533-3-0"
     style="fill:#262626;fill-opacity:1;stroke:#ffffff;stroke-width:0.30000001;stroke-linecap:square;stroke-linejoin:round;stroke-miterlimit:5;stroke-dasharray:none;stroke-opacity:1" />
  <rect
     y="8.6726818"
     x="6.4409008"
     height="2.0444503"
     width="2.0444503"
     id="rect4533-3-6-9"
     style="fill:#262626;fill-opacity:1;stroke:#ffffff;stroke-width:0.30000001;stroke-linecap:square;stroke-linejoin:round;stroke-miterlimit:5;stroke-dasharray:none;stroke-opacity:1" />
  <rect
     y="11.15486"
     x="1.4652928"
     height="2.0444503"
     width="2.0444503"
     id="rect4533-3-7-3"
     style="fill:#262626;fill-opacity:1;stroke:#ffffff;stroke-width:0.30000001;stroke-linecap:square;stroke-linejoin:round;stroke-miterlimit:5;stroke-dasharray:none;stroke-opacity:1" />
  <rect
     y="11.15486"
     x="3.9531009"
     height="2.0444503"
     width="2.0444503"
     id="rect4533-3-5-6"
     style="fill:#262626;fill-opacity:1;stroke:#ffffff;stroke-width:0.30000001;stroke-linecap:square;stroke-linejoin:round;stroke-miterlimit:5;stroke-dasharray:none;stroke-opacity:1" />
  <rect
     y="11.15486"
     x="6.4409008"
     height="2.0444503"
     width="2.0444503"
     id="rect4533-3-3-0"
     style="fill:#262626;fill-opacity:1;stroke:#ffffff;stroke-width:0.30000001;stroke-linecap:square;stroke-linejoin:round;stroke-miterlimit:5;stroke-dasharray:none;stroke-opacity:1" />
  <rect
     y="13.630637"
     x="1.4652928"
     height="2.0444503"
     width="2.0444503"
     id="rect4533-3-56-6"
     style="fill:#262626;fill-opacity:1;stroke:#ffffff;stroke-width:0.30000001;stroke-linecap:square;stroke-linejoin:round;stroke-miterlimit:5;stroke-dasharray:none;stroke-opacity:1" />
  <rect
     y="13.630637"
     x="3.9531009"
     height="2.0444503"
     width="2.0444503"
     id="rect4533-3-2-2"
     style="fill:#262626;fill-opacity:1;stroke:#ffffff;stroke-width:0.30000001;stroke-linecap:square;stroke-linejoin:round;stroke-miterlimit:5;stroke-dasharray:none;stroke-opacity:1" />
  <rect
     y="13.630637"
     x="6.4409008"
     height="2.0444503"
     width="2.0444503"
     id="rect4533-3-9-6"
     style="fill:#262626;fill-opacity:1;stroke:#ffffff;stroke-width:0.30000001;stroke-linecap:square;stroke-linejoin:round;stroke-miterlimit:5;stroke-dasharray:none;stroke-opacity:1" />
  <path
     transform="matrix(0.31598581,0,0.1824345,0.36668551,-38.282459,-32.046666)"
     d="m 83.779726,99.97271 -9.202259,0 4.60113,-7.969391 z"
     id="path4660"
     style="fill:#262626;fill-opacity:1;stroke:#ffffff;stroke-width:0.88133413;stroke-linecap:square;stroke-linejoin:round;stroke-miterlimit:5;stroke-dasharray:none;stroke-dashoffset:0;stroke-opacity:1" />
  <rect
     y="6.3385987"
     x="5.1914277"
     height="0.75706142"
     width="1.8228835"
     id="rect4662-3"
     style="fill:#262626;fill-opacity:1;stroke:#ffffff;stroke-width:0.30000001;stroke-linecap:square;stroke-linejoin:round;stroke-miterlimit:5;stroke-dasharray:none;stroke-dashoffset:0;stroke-opacity:1" />
  <rect
     y="6.3385987"
     x="2.9363391"
     height="0.75706142"
     width="1.8228835"
     id="rect4662-3-5"
     style="fill:#262626;fill-opacity:1;stroke:#ffffff;stroke-width:0.30000001;stroke-linecap:square;stroke-linejoin:round;stroke-miterlimit:5;stroke-dasharray:none;stroke-dashoffset:0;stroke-opacity:1" />
  <rect
     y="6.3385987"
     x="0.68124998"
     height="0.75706142"
     width="1.8228835"
     id="rect4662-3-8"
     style="fill:#262626;fill-opacity:1;stroke:#ffffff;stroke-width:0.30000001;stroke-linecap:square;stroke-linejoin:round;stroke-miterlimit:5;stroke-dasharray:none;stroke-dashoffset:0;stroke-opacity:1" />
  <rect
     y="6.3385911"
     x="7.4465094"
     height="0.75706142"
     width="1.8228835"
     id="rect4662-3-0"
     style="fill:#262626;fill-opacity:1;stroke:#ffffff;stroke-width:0.30000001;stroke-linecap:square;stroke-linejoin:round;stroke-miterlimit:5;stroke-dasharray:none;stroke-dashoffset:0;stroke-opacity:1" />
  <rect
     y="7.4912019"
     x="7.4465094"
     height="0.75706142"
     width="1.8228835"
     id="rect4662-3-00"
     style="fill:#262626;fill-opacity:1;stroke:#ffffff;stroke-width:0.30000001;stroke-linecap:square;stroke-linejoin:round;stroke-miterlimit:5;stroke-dasharray:none;stroke-dashoffset:0;stroke-opacity:1" />
  <rect
     y="7.4912019"
     x="5.1914277"
     height="0.75706142"
     width="1.8228835"
     id="rect4662-3-4"
     style="fill:#262626;fill-opacity:1;stroke:#ffffff;stroke-width:0.30000001;stroke-linecap:square;stroke-linejoin:round;stroke-miterlimit:5;stroke-dasharray:none;stroke-dashoffset:0;stroke-opacity:1" />
  <rect
     y="7.4912019"
     x="2.9363391"
     height="0.75706142"
     width="1.8228835"
     id="rect4662-3-7"
     style="fill:#262626;fill-opacity:1;stroke:#ffffff;stroke-width:0.30000001;stroke-linecap:square;stroke-linejoin:round;stroke-miterlimit:5;stroke-dasharray:none;stroke-dashoffset:0;stroke-opacity:1" />
  <rect
     y="7.4912019"
     x="0.68124998"
     height="0.75706142"
     width="1.8228835"
     id="rect4662-3-53"
     style="fill:#262626;fill-opacity:1;stroke:#ffffff;stroke-width:0.30000001;stroke-linecap:square;stroke-linejoin:round;stroke-miterlimit:5;stroke-dasharray:none;stroke-dashoffset:0;stroke-opacity:1" />
</svg>
