[{
  "name": "_static",
  "description": "Builtin exercise type. This exercise has no smarts. There is no script associated with it. It simply creates widgets as described in the options",
  "options": [
  {
    "name": "widgets",
    "description": "The widgets in the question.",
    "type": "array",
    "items": {
      "type":"object",
      "properties": [
      {
        "name":"type",
        "type":"string",
        "description":"The type of widget this is.",
      },
      {
        "name":"key",
        "type":"string",
        "description":"The answer to this widget.",
      },
      {
        "name":"options",
        "type":"object",
        "description":"The widget options.",
      }]
    }
  },
  {
    "name": "templates",
    "description": "Templates for making large duplications of text more managable. Each one has a name which when used as a string value for any option, will generate that value based off of the template.",
    "type": "array",
    "items": {
      "type":"object", 
      "properties": [
      {
        "name":"title",
        "description": "The title as referenced in options",
        "type":"string"
      },
      {
        "name":"file",
        "description": "The filename of the template",
        "type":"string"
      },
      {
        "name":"subs",
        "description": "Substitutions for this template",
        "type":"object"
      }
      ]
    }
  }
  {
    "name": "hints",
    "description": "The hints available to this question.",
    "type": "array",
    "items": { "type":"string" }
  },
  { 
    "name": "calculator",
    "description": "Determines what type of calculator is recommended.",
    "type": "string",
    "enum": ["none", "basic", "scientific", "graphing"]
  },
  {
    "name": "name",
    "description": "The name to display above the question.",
    "type": "string",
  }],
  "templates": ["default.svg"]
}]
